// Jest Snapshot v1, https://goo.gl/fbAQLP

exports[`Highlights should render correctly 1`] = `
<div
  className="highlights"
>
  <h1
    className="heading h1"
    style={
      Object {
        "color": "#000",
      }
    }
  >
    Yo, dawg
  </h1>
  <ul>
    <li
      dangerouslySetInnerHTML={
        Object {
          "__html": "foo",
        }
      }
    />
    <li
      dangerouslySetInnerHTML={
        Object {
          "__html": "bar",
        }
      }
    />
  </ul>
</div>
`;
